(move b12 g6 g10)
(move b10 g5 g6)
(move b11 g1 g5)
(move b2 g0 g1)
(move b4 g4 g0)
(move b5 g8 g4)
(move b7 g12 g8)
(move b13 g13 g12)
(move b14 g14 g13)
(move b12 g10 g14)
(move b1 g11 g10)
(move b0 g15 g11)
(move b12 g14 g15)
(move b14 g13 g14)
(move b13 g12 g13)
(move b7 g8 g12)
(move b9 g9 g8)
(move b1 g10 g9)
(move b10 g6 g10)
(move b11 g5 g6)
(move b1 g9 g5)
(move b10 g10 g9)
(move b0 g11 g10)
(move b6 g7 g11)
(move b11 g6 g7)
(move b0 g10 g6)
(move b10 g9 g10)
(move b9 g8 g9)
(move b7 g12 g8)
(move b13 g13 g12)
(move b14 g14 g13)
(move b12 g15 g14)
(move b6 g11 g15)
(move b11 g7 g11)
(move b0 g6 g7)
(move b8 g2 g6)
(move b2 g1 g2)
(move b1 g5 g1)
(move b5 g4 g5)
(move b7 g8 g4)
(move b13 g12 g8)
(move b14 g13 g12)
(move b12 g14 g13)
(move b10 g10 g14)
(move b8 g6 g10)
(move b5 g5 g6)
(move b7 g4 g5)
(move b13 g8 g4)
(move b14 g12 g8)
(move b12 g13 g12)
(move b9 g9 g13)
(move b8 g10 g9)
(move b10 g14 g10)
(move b9 g13 g14)
(move b12 g12 g13)
(move b14 g8 g12)
(move b8 g9 g8)
(move b10 g10 g9)
(move b5 g6 g10)
(move b7 g5 g6)
(move b10 g9 g5)
(move b5 g10 g9)
(move b7 g6 g10)
(move b10 g5 g6)
(move b5 g9 g5)
(move b12 g13 g9)
(move b9 g14 g13)
(move b6 g15 g14)
(move b11 g11 g15)
(move b7 g10 g11)
(move b10 g6 g10)
(move b0 g7 g6)
(move b7 g11 g7)
(move b11 g15 g11)
(move b6 g14 g15)
(move b9 g13 g14)
(move b12 g9 g13)
(move b8 g8 g9)
(move b14 g12 g8)
(move b12 g13 g12)
(move b8 g9 g13)
(move b14 g8 g9)
(move b13 g4 g8)
(move b4 g0 g4)
(move b1 g1 g0)
(move b5 g5 g1)
(move b0 g6 g5)
(move b10 g10 g6)
(move b14 g9 g10)
(move b8 g13 g9)
(move b12 g12 g13)
(move b13 g8 g12)
(move b8 g9 g8)
(move b12 g13 g9)
(move b9 g14 g13)
(move b14 g10 g14)
(move b10 g6 g10)
(move b0 g5 g6)
(move b5 g1 g5)
(move b1 g0 g1)
(move b4 g4 g0)
(move b8 g8 g4)
(move b12 g9 g8)
(move b9 g13 g9)
(move b13 g12 g13)
(move b12 g8 g12)
(move b8 g4 g8)
(move b4 g0 g4)
(move b1 g1 g0)
(move b2 g2 g1)
(move b0 g6 g2)
(move b5 g5 g6)
(move b2 g1 g5)
(move b0 g2 g1)
(move b5 g6 g2)
(move b2 g5 g6)
(move b0 g1 g5)
(move b1 g0 g1)
(move b4 g4 g0)
(move b0 g5 g4)
(move b1 g1 g5)
(move b4 g0 g1)
(move b0 g4 g0)
(move b1 g5 g4)
(move b4 g1 g5)
(move b5 g2 g1)
(move b2 g6 g2)
(move b4 g5 g6)
(move b5 g1 g5)
(move b0 g0 g1)
(move b1 g4 g0)
(move b5 g5 g4)
(move b4 g6 g5)
(move b2 g2 g6)
(move b0 g1 g2)
(move b1 g0 g1)
(move b5 g4 g0)
(move b4 g5 g4)
(move b1 g1 g5)
(move b0 g2 g1)
(move b2 g6 g2)
(move b1 g5 g6)
(move b0 g1 g5)
(move b5 g0 g1)
(move b4 g4 g0)
(move b0 g5 g4)
(move b5 g1 g5)
(move b4 g0 g1)
(move b0 g4 g0)
(move b5 g5 g4)
(move b4 g1 g5)
(move b2 g2 g1)
(move b1 g6 g2)
(move b4 g5 g6)
(move b2 g1 g5)
(move b1 g2 g1)
(move b4 g6 g2)
(move b2 g5 g6)
(move b5 g4 g5)
(move b0 g0 g4)
(move b1 g1 g0)
(move b4 g2 g1)
(move b2 g6 g2)
(move b5 g5 g6)
(move b4 g1 g5)
(move b1 g0 g1)
(move b0 g4 g0)
(move b4 g5 g4)
(move b5 g6 g5)
(move b7 g7 g6)
(move b11 g11 g7)
(move b6 g15 g11)
(move b14 g14 g15)
(move b10 g10 g14)
(move b6 g11 g10)
(move b11 g7 g11)
(move b7 g6 g7)
(move b6 g10 g6)
(move b10 g14 g10)
(move b14 g15 g14)